NEMA17.c:9:6:Nema17_Init	24	static
NEMA17.c:35:6:Nema17_Direction_CW	16	static
NEMA17.c:41:6:Nema17_Direction_CCW	16	static
NEMA17.c:47:6:Nema17_Invert_Direction	24	static
NEMA17.c:68:6:Nema17_Set_Speed	32	static
NEMA17.c:108:6:Nema17_Set_Instant_Speed	24	static
NEMA17.c:116:14:Nema17_Get_Sense	16	static
NEMA17.c:121:10:Nema17_Get_Speed	16	static
NEMA17.c:129:6:Nema17_Enable	16	static
NEMA17.c:134:6:Nema17_Stall	16	static
NEMA17.c:140:6:Nema17_Release	16	static
NEMA17.c:146:6:Nema17_Is_Enable	16	static
NEMA17.c:151:6:Nema17_Setup_Steps_Stop	16	static
NEMA17.c:158:6:Nema17_Stop_At_N_Step	16	static
NEMA17.c:170:6:Nema17_Do_Steps	16	static,ignoring_inline_asm
NEMA17.c:179:6:Nema17_Reset_Steps	16	static
NEMA17.c:186:10:Nema17_Get_Steps	16	static
NEMA17.c:192:6:Nema17_Enable_Step_Counter	16	static
NEMA17.c:196:6:Nema17_Disable_Step_Counter	16	static
NEMA17.c:201:6:Nema17_Get_Enable_Step_Counter	16	static
NEMA17.c:206:6:Nema17_Increment_Steps	16	static
NEMA17.c:222:6:Nema17_Start_Homing	16	static
NEMA17.c:235:6:Nema17_Homing_Stage_1	16	static
NEMA17.c:241:6:Nema17_Homing_Stage_2	16	static
NEMA17.c:247:6:Nema17_Homing_Stage_3	16	static
NEMA17.c:253:6:Nema17_EndStop	16	static
